"1","201712260851055a4237a9dafa1.jpg","10","SAO LUIS","2013","EC-09","Amarelo",NULL,"HYSTER",NULL,NULL,"MA",NULL,"2013",NULL,"H155FT","OPERANDO","User Demo",NULL,"1","2017-12-25 11:12:46","2017-12-26 08:51:05"
"2","201712251140455a410ded34037.jpg","10","São Luís, Maranhão,","2013","EC-13","Amarelo",NULL,"HYSTER",NULL,NULL,"MA",NULL,"2013",NULL,"H155FT","OPERANDO","User Demo",NULL,"1","2017-12-25 11:14:11","2017-12-25 11:40:45"
"3","201712251140215a410dd5b731d.jpg","10","São Luís, Maranhão,","2013","EC-14","Amarelo",NULL,"HYSTER",NULL,NULL,"MA",NULL,"2013",NULL,"H155FT","OPERANDO","User Demo",NULL,"1","2017-12-25 11:25:23","2017-12-25 11:40:21"
"4","201712251139505a410db6d7d25.jpg","10","São Luís, Maranhão,","2010","EC-11","Amarelo",NULL,"HYSTER",NULL,NULL,"MA",NULL,"2010",NULL,"H155FT","OPERANDO","User Demo",NULL,"1","2017-12-25 11:26:16","2017-12-25 11:42:37"
"5","201712251138455a410d7514ac5.jpg","10","São Luís, Maranhão,","2013","EC-15","Amarelo",NULL,"HYSTER",NULL,NULL,"MA",NULL,"2013",NULL,"H155FT","OPERANDO","User Demo",NULL,"1","2017-12-25 11:26:53","2017-12-25 11:38:45"
"6","201712251136535a410d05e7e8c.jpg","10","São Luís, Maranhão,","2013","EC-19","Amarelo",NULL,"HYSTER",NULL,NULL,"MA",NULL,"2013",NULL,"H155FT","OPERANDO","User Demo",NULL,"1","2017-12-25 11:27:30","2017-12-25 11:36:53"
"7","201712251139295a410da19356c.jpg","10","São Luís, Maranhão,","2013","EC-20","Amarelo",NULL,"HYSTER",NULL,NULL,"MA",NULL,"2013",NULL,"H155FT","OPERANDO","User Demo",NULL,"1","2017-12-25 11:28:29","2017-12-25 11:39:29"
"8","201712251135595a410ccf59de9.jpg","10","São Luís, Maranhão,","2013","EC-21","Amarelo",NULL,"HYSTER",NULL,NULL,"MA",NULL,"2013",NULL,"H155FT","OPERANDO","User Demo",NULL,"1","2017-12-25 11:29:11","2017-12-25 11:35:59"
"9","201712251131445a410bd0db272.jpg","10","São Luís, Maranhão,","2013","EC-22","Amarelo",NULL,"HYSTER",NULL,NULL,"MA",NULL,"2013",NULL,"H155FT","OPERANDO","User Demo",NULL,"1","2017-12-25 11:29:51","2017-12-25 11:31:45"
"10","201712251145505a410f1e8d8a1.jpg","10","São Luís, Maranhão,","2010","EC-12","Amarelo",NULL,"HYSTER",NULL,NULL,"MA",NULL,"2010",NULL,"H155FT","OPERANDO","User Demo",NULL,"1","2017-12-25 11:45:30","2017-12-25 11:45:50"
"11","201712251147045a410f6863c79.jpg","10","São Luís, Maranhão,","2010","EC-16","Amarelo",NULL,"HYSTER",NULL,NULL,"MA",NULL,"2010",NULL,"H155FT","OPERANDO","User Demo",NULL,"1","2017-12-25 11:47:04","2017-12-25 11:47:04"
"12","201712251147545a410f9af3e50.jpg","10","São Luís, Maranhão,","2010","EC-17","Amarelo",NULL,"HYSTER",NULL,NULL,"MA",NULL,"2010",NULL,"H155FT","OPERANDO","User Demo",NULL,"1","2017-12-25 11:47:54","2017-12-25 11:47:54"
"13","201712260853025a42381e7d515.jpg","10","São Luís, Maranhão,","2012","EC-23","Laranja",NULL,"HELLI",NULL,NULL,"MA",NULL,"2012",NULL,"CPCD70","OPERANDO","User Demo",NULL,"1","2017-12-25 11:50:05","2017-12-26 08:53:02"
"14","201712260852465a42380eef380.jpg","10","São Luís, Maranhão,","2010","ST-01","Amarelo",NULL,"HYSTER",NULL,NULL,"MA",NULL,"2010",NULL,"R45-35","OPERANDO","User Demo",NULL,"1","2017-12-25 11:51:16","2017-12-26 08:52:46"
"15","201712260852295a4237fd4dd53.jpg","10","São Luís, Maranhão,","2013","TC-01","Amarelo",NULL,"HYSTER",NULL,NULL,"MA",NULL,"2013",NULL,"H155FT - 18ton","OPERANDO","User Demo",NULL,"1","2017-12-25 11:54:12","2017-12-26 08:52:29"
"16","201712260852135a4237eda0f32.jpg","10","São Luís, Maranhão,","2010","TC-02","Amarelo",NULL,"HYSTER",NULL,NULL,"MA",NULL,"2010",NULL,"H155FT - 18ton","OPERANDO","User Demo",NULL,"1","2017-12-25 11:56:32","2017-12-26 08:52:13"
"17","201712260851555a4237db8334f.jpg","10","São Luís, Maranhão,","2010","EC-07","Amarelo",NULL,"HYSTER",NULL,NULL,"MA",NULL,"2010",NULL,"H155FT","OPERANDO","User Demo",NULL,"1","2017-12-25 11:59:41","2017-12-26 08:51:55"
"18","201712260851395a4237cbdca7e.jpg","10","São Luís, Maranhão,","2010","EC-10","Amarelo",NULL,"HYSTER",NULL,NULL,"MA",NULL,"2010",NULL,"H155FT","OPERANDO","User Demo",NULL,"1","2017-12-25 12:01:05","2017-12-26 08:51:39"
