"1","Erick Raposo","azafilmes@gmail.com","ericklive","$2y$10$YkVjr9l8PTUkhlkuJiB2hebioY0hbsvkdDfGVO.2FeF5MaPCxiN5W","123456S","(98) 99195-6153",NULL,"1","0",NULL,NULL,"tfXz4l3iWT",NULL,NULL
"2","User Demo","user@user.com","userdemo","$2y$10$nztjfUepQENKYzwOG3v2ZO0jm4PNRkte4LpHPsvzU5TDxZjyygpey","123456","(98) 99195-6153",NULL,"1","0",NULL,NULL,"zOBmg9UIwHTTXFg2doHraKnk9eZaMgqvoVQX8hvjMooXEITklLnfjXUUwsCK",NULL,NULL
"3","Usuário Teste","teste@teste.com","userteste","$2y$10$Mj/3ehyA.6oYIqYNfJJdhOF/2NCsf/yXqAbUgteYxuw7wrxmRrqOe","123456","(98) 99999-9999",NULL,"1","0",NULL,NULL,"JrUVcRSXIn",NULL,NULL
"13","Lucas R. Ferreira","lucasrferreira94@gmail.com","LRF","$2y$10$dUkpkDv4HzCwqdiPce4gXeTF9fsAeB8HiN1kcG3OpU9itriR/IX0W","c15861","(98) 98279-0870",NULL,"2","1",NULL,"1998-01-01","PpHEFUseDagO4Wmf4VXsqg58m7T6FHcsaabFXdkfaJD76nzPHjtOlttIQ32m","2017-12-26 10:01:09","2017-12-26 10:01:09"
"12","ADEILTON","adeilton.almeida@g5sl.com.br","ADE","$2y$10$SPyky5k/MRSeeqrkhzf.POnt28H2CF9Eao1DkF5zAUCURHT51o5Sa","5dd3ec","(98) 99175-5149",NULL,"3","1",NULL,"1981-10-01",NULL,"2017-12-26 09:32:48","2017-12-26 09:32:48"
"11","Thiago","thiago.santos@g5sl.com.br","TFS","$2y$10$sTINE0GV9e2zksbGNYSs1.vJiTiFzKaToRL89JuKt99lFTh6zAbia","9a0400","(98) 99116-4226",NULL,"2","1",NULL,"1993-01-01",NULL,"2017-12-26 09:28:05","2017-12-26 09:28:05"
"10","WENER SANTOS","wener.santos@hotmail.com","WMTS","$2y$10$2C8yXd2tcQqn6gbvDLX9SePUKiShmcI3fThC08K8Z4ajfUD/tR572","ceacad","(98) 98291-0276",NULL,"2","1",NULL,"1974-10-01","C0LKe3MRKsFLz0wipz6LTyrXZGpgDv2vPRBLqwTHF4XD5PHHm0m8oLd6wwYr","2017-12-26 09:23:00","2017-12-26 09:23:00"
